QMEE 2021
…
## manipulating data verbs: select (taking col), filter (taking rows), ..
 select(surveys, month, day)

## # A tibble: 34,786 x 2
##    month   day
##    <dbl> <dbl>
##  1     7    16
##  2     8    19
##  3     9    13
##  4    10    16
##  5    11    12
##  6    11    12
##  7    12    10
##  8     1     8
##  9     2    18
## 10     3    11
## #  with 34,776 more rows

 select(surveys,-genus)

## # A tibble: 34,786 x 12
##    record_id month   day  year plot_id species_id sex   hindfoot_length weight
##        <dbl> <dbl> <dbl> <dbl>   <dbl> <chr>      <chr>           <dbl>  <dbl>
##  1         1     7    16  1977       2 NL         M                  32     NA
##  2        72     8    19  1977       2 NL         M                  31     NA
##  3       224     9    13  1977       2 NL         <NA>               NA     NA
##  4       266    10    16  1977       2 NL         <NA>               NA     NA
##  5       349    11    12  1977       2 NL         <NA>               NA     NA
##  6       363    11    12  1977       2 NL         <NA>               NA     NA
##  7       435    12    10  1977       2 NL         <NA>               NA     NA
##  8       506     1     8  1978       2 NL         <NA>               NA     NA
##  9       588     2    18  1978       2 NL         M                  NA    218
## 10       661     3    11  1978       2 NL         <NA>               NA     NA
## #  with 34,776 more rows, and 3 more variables: species <chr>, taxa <chr>,
## #   plot_type <chr>

 filter(surveys, (month >11|month<3) & species== "albigula")  ## if you put , in filter it means & &

## # A tibble: 202 x 13
##    record_id month   day  year plot_id species_id sex   hindfoot_length weight
##        <dbl> <dbl> <dbl> <dbl>   <dbl> <chr>      <chr>           <dbl>  <dbl>
##  1       435    12    10  1977       2 NL         <NA>               NA     NA
##  2       506     1     8  1978       2 NL         <NA>               NA     NA
##  3       588     2    18  1978       2 NL         M                  NA    218
##  4      2406     1    16  1980       2 NL         F                  33    184
##  5      5180     1     1  1982       2 NL         M                  NA    206
##  6      5299     1    25  1982       2 NL         F                  32    165
##  7      5485     2    24  1982       2 NL         M                  34    202
##  8      8755    12     9  1983       2 NL         F                  32    150
##  9     11215    12     8  1985       2 NL         F                  32    160
## 10     12299     2     1  1987       2 NL         M                  32    253
## #  with 192 more rows, and 4 more variables: genus <chr>, species <chr>,
## #   taxa <chr>, plot_type <chr>
…
print(parasiteTable
      %>%  group_by(id, village, compound)
      %>% summarize(count=n())
      %>% group_by(id)
      %>% summarize(count=n())
      %>% filter(count>1)
      %>% arrange(desc(count))
  
)

## `summarise()` regrouping output by 'id', 'village' (override with `.groups` argument)

## `summarise()` ungrouping output (override with `.groups` argument)

## # A tibble: 756 x 2
##       id count
##    <dbl> <int>
##  1  6571     4
##  2  6572     4
##  3  6573     4
##  4  6574     4
##  5  6575     4
##  6  6576     4
##  7  6577     4
##  8  6578     4
##  9    41     3
## 10  1081     3
## #  with 746 more rows
…
library(tidyverse)
find("filter") ## the order of packages that R is using function filter

## [1] "package:dplyr" "package:stats"

m <- as_tibble(mtcars) ## tibble mostly behave like dataframe, the primary case that makes it different
print(m)

## # A tibble: 32 x 11
##      mpg   cyl  disp    hp  drat    wt  qsec    vs    am  gear  carb
##    <dbl> <dbl> <dbl> <dbl> <dbl> <dbl> <dbl> <dbl> <dbl> <dbl> <dbl>
##  1  21       6  160    110  3.9   2.62  16.5     0     1     4     4
##  2  21       6  160    110  3.9   2.88  17.0     0     1     4     4
##  3  22.8     4  108     93  3.85  2.32  18.6     1     1     4     1
##  4  21.4     6  258    110  3.08  3.22  19.4     1     0     3     1
##  5  18.7     8  360    175  3.15  3.44  17.0     0     0     3     2
##  6  18.1     6  225    105  2.76  3.46  20.2     1     0     3     1
##  7  14.3     8  360    245  3.21  3.57  15.8     0     0     3     4
##  8  24.4     4  147.    62  3.69  3.19  20       1     0     4     2
##  9  22.8     4  141.    95  3.92  3.15  22.9     1     0     4     2
## 10  19.2     6  168.   123  3.92  3.44  18.3     1     0     4     4
## #  with 22 more rows

# difference between dataframe and tibble, see below
str(mtcars[,1])

##  num [1:32] 21 21 22.8 21.4 18.7 18.1 14.3 24.4 22.8 19.2 ...

str(m[,1])

## tibble [32  1] (S3: tbl_df/tbl/data.frame)
##  $ mpg: num [1:32] 21 21 22.8 21.4 18.7 18.1 14.3 24.4 22.8 19.2 ...

m %>% group_by(cyl) ## group it by single var, ie cylender

## # A tibble: 32 x 11
## # Groups:   cyl [3]
##      mpg   cyl  disp    hp  drat    wt  qsec    vs    am  gear  carb
##    <dbl> <dbl> <dbl> <dbl> <dbl> <dbl> <dbl> <dbl> <dbl> <dbl> <dbl>
##  1  21       6  160    110  3.9   2.62  16.5     0     1     4     4
##  2  21       6  160    110  3.9   2.88  17.0     0     1     4     4
##  3  22.8     4  108     93  3.85  2.32  18.6     1     1     4     1
##  4  21.4     6  258    110  3.08  3.22  19.4     1     0     3     1
##  5  18.7     8  360    175  3.15  3.44  17.0     0     0     3     2
##  6  18.1     6  225    105  2.76  3.46  20.2     1     0     3     1
##  7  14.3     8  360    245  3.21  3.57  15.8     0     0     3     4
##  8  24.4     4  147.    62  3.69  3.19  20       1     0     4     2
##  9  22.8     4  141.    95  3.92  3.15  22.9     1     0     4     2
## 10  19.2     6  168.   123  3.92  3.44  18.3     1     0     4     4
## #  with 22 more rows

m %>% group_by(cyl) %>% ungroup() ## group it by cylender and ungroup it

## # A tibble: 32 x 11
##      mpg   cyl  disp    hp  drat    wt  qsec    vs    am  gear  carb
##    <dbl> <dbl> <dbl> <dbl> <dbl> <dbl> <dbl> <dbl> <dbl> <dbl> <dbl>
##  1  21       6  160    110  3.9   2.62  16.5     0     1     4     4
##  2  21       6  160    110  3.9   2.88  17.0     0     1     4     4
##  3  22.8     4  108     93  3.85  2.32  18.6     1     1     4     1
##  4  21.4     6  258    110  3.08  3.22  19.4     1     0     3     1
##  5  18.7     8  360    175  3.15  3.44  17.0     0     0     3     2
##  6  18.1     6  225    105  2.76  3.46  20.2     1     0     3     1
##  7  14.3     8  360    245  3.21  3.57  15.8     0     0     3     4
##  8  24.4     4  147.    62  3.69  3.19  20       1     0     4     2
##  9  22.8     4  141.    95  3.92  3.15  22.9     1     0     4     2
## 10  19.2     6  168.   123  3.92  3.44  18.3     1     0     4     4
## #  with 22 more rows

m %>% group_by(cyl) %>% summarise(mpg=mean(mpg))

## `summarise()` ungrouping output (override with `.groups` argument)

## # A tibble: 3 x 2
##     cyl   mpg
##   <dbl> <dbl>
## 1     4  26.7
## 2     6  19.7
## 3     8  15.1

m %>% group_by(cyl,gear)

## # A tibble: 32 x 11
## # Groups:   cyl, gear [8]
##      mpg   cyl  disp    hp  drat    wt  qsec    vs    am  gear  carb
##    <dbl> <dbl> <dbl> <dbl> <dbl> <dbl> <dbl> <dbl> <dbl> <dbl> <dbl>
##  1  21       6  160    110  3.9   2.62  16.5     0     1     4     4
##  2  21       6  160    110  3.9   2.88  17.0     0     1     4     4
##  3  22.8     4  108     93  3.85  2.32  18.6     1     1     4     1
##  4  21.4     6  258    110  3.08  3.22  19.4     1     0     3     1
##  5  18.7     8  360    175  3.15  3.44  17.0     0     0     3     2
##  6  18.1     6  225    105  2.76  3.46  20.2     1     0     3     1
##  7  14.3     8  360    245  3.21  3.57  15.8     0     0     3     4
##  8  24.4     4  147.    62  3.69  3.19  20       1     0     4     2
##  9  22.8     4  141.    95  3.92  3.15  22.9     1     0     4     2
## 10  19.2     6  168.   123  3.92  3.44  18.3     1     0     4     4
## #  with 22 more rows
…
